%YAML 1.1
%TAG !u! tag:unity3d.com,2011:
--- !u!114 &11400000
MonoBehaviour:
  m_ObjectHideFlags: 0
  m_CorrespondingSourceObject: {fileID: 0}
  m_PrefabInstance: {fileID: 0}
  m_PrefabAsset: {fileID: 0}
  m_GameObject: {fileID: 0}
  m_Enabled: 1
  m_EditorHideFlags: 0
  m_Script: {fileID: 11500000, guid: e5912ad0b1ba4c59929b3c4f87b7af30, type: 3}
  m_Name: MainMenu
  m_EditorClassIdentifier: 
  <State>k__BackingField: 1
  <SceneName>k__BackingField: MainMenu
  <Installer>k__BackingField:
    mode: 1
    unityReference: {fileID: 0}
    rawReference:
      rid: 2578737552790389321
  references:
    version: 2
    RefIds:
    - rid: 2578737552790389321
      type: {class: MainMenuInstaller, ns: Core.DI, asm: DI}
      data: 
