%YAML 1.1
%TAG !u! tag:unity3d.com,2011:
--- !u!47 &1
QualitySettings:
  m_ObjectHideFlags: 0
  serializedVersion: 5
  m_CurrentQuality: 2
  m_QualitySettings:
  - serializedVersion: 4
    name: Performant
    pixelLightCount: 0
    shadows: 0
    shadowResolution: 0
    shadowProjection: 1
    shadowCascades: 1
    shadowDistance: 20
    shadowNearPlaneOffset: 3
    shadowCascade2Split: 0.33333334
    shadowCascade4Split: {x: 0.06666667, y: 0.2, z: 0.46666667}
    shadowmaskMode: 0
    skinWeights: 2
    globalTextureMipmapLimit: 0
    textureMipmapLimitSettings: []
    anisotropicTextures: 0
    antiAliasing: 0
    softParticles: 0
    softVegetation: 0
    realtimeReflectionProbes: 0
    billboardsFaceCameraPosition: 0
    useLegacyDetailDistribution: 1
    adaptiveVsync: 0
    vSyncCount: 0
    realtimeGICPUUsage: 25
    adaptiveVsyncExtraA: 0
    adaptiveVsyncExtraB: 0
    lodBias: 0.4
    maximumLODLevel: 0
    enableLODCrossFade: 1
    streamingMipmapsActive: 0
    streamingMipmapsAddAllCameras: 1
    streamingMipmapsMemoryBudget: 512
    streamingMipmapsRenderersPerFrame: 512
    streamingMipmapsMaxLevelReduction: 2
    streamingMipmapsMaxFileIORequests: 1024
    particleRaycastBudget: 4
    asyncUploadTimeSlice: 2
    asyncUploadBufferSize: 16
    asyncUploadPersistentBuffer: 1
    resolutionScalingFixedDPIFactor: 1
    customRenderPipeline: {fileID: 11400000, guid: d0e2fc18fe036412f8223b3b3d9ad574, type: 2}
    terrainQualityOverrides: 0
    terrainPixelError: 1
    terrainDetailDensityScale: 1
    terrainBasemapDistance: 1000
    terrainDetailDistance: 80
    terrainTreeDistance: 5000
    terrainBillboardStart: 50
    terrainFadeLength: 5
    terrainMaxTrees: 50
    excludedTargetPlatforms: []
  - serializedVersion: 4
    name: Balanced
    pixelLightCount: 1
    shadows: 1
    shadowResolution: 0
    shadowProjection: 1
    shadowCascades: 1
    shadowDistance: 20
    shadowNearPlaneOffset: 3
    shadowCascade2Split: 0.33333334
    shadowCascade4Split: {x: 0.06666667, y: 0.2, z: 0.46666667}
    shadowmaskMode: 0
    skinWeights: 4
    globalTextureMipmapLimit: 0
    textureMipmapLimitSettings: []
    anisotropicTextures: 1
    antiAliasing: 0
    softParticles: 0
    softVegetation: 0
    realtimeReflectionProbes: 0
    billboardsFaceCameraPosition: 0
    useLegacyDetailDistribution: 1
    adaptiveVsync: 0
    vSyncCount: 1
    realtimeGICPUUsage: 25
    adaptiveVsyncExtraA: 0
    adaptiveVsyncExtraB: 0
    lodBias: 1
    maximumLODLevel: 0
    enableLODCrossFade: 1
    streamingMipmapsActive: 0
    streamingMipmapsAddAllCameras: 1
    streamingMipmapsMemoryBudget: 512
    streamingMipmapsRenderersPerFrame: 512
    streamingMipmapsMaxLevelReduction: 2
    streamingMipmapsMaxFileIORequests: 1024
    particleRaycastBudget: 64
    asyncUploadTimeSlice: 2
    asyncUploadBufferSize: 16
    asyncUploadPersistentBuffer: 1
    resolutionScalingFixedDPIFactor: 1
    customRenderPipeline: {fileID: 11400000, guid: e1260c1148f6143b28bae5ace5e9c5d1, type: 2}
    terrainQualityOverrides: 0
    terrainPixelError: 1
    terrainDetailDensityScale: 1
    terrainBasemapDistance: 1000
    terrainDetailDistance: 80
    terrainTreeDistance: 5000
    terrainBillboardStart: 50
    terrainFadeLength: 5
    terrainMaxTrees: 50
    excludedTargetPlatforms: []
  - serializedVersion: 4
    name: High Fidelity
    pixelLightCount: 2
    shadows: 2
    shadowResolution: 1
    shadowProjection: 1
    shadowCascades: 2
    shadowDistance: 40
    shadowNearPlaneOffset: 3
    shadowCascade2Split: 0.33333334
    shadowCascade4Split: {x: 0.06666667, y: 0.2, z: 0.46666667}
    shadowmaskMode: 1
    skinWeights: 255
    globalTextureMipmapLimit: 0
    textureMipmapLimitSettings: []
    anisotropicTextures: 2
    antiAliasing: 4
    softParticles: 0
    softVegetation: 1
    realtimeReflectionProbes: 1
    billboardsFaceCameraPosition: 1
    useLegacyDetailDistribution: 1
    adaptiveVsync: 0
    vSyncCount: 1
    realtimeGICPUUsage: 25
    adaptiveVsyncExtraA: 0
    adaptiveVsyncExtraB: 0
    lodBias: 2
    maximumLODLevel: 0
    enableLODCrossFade: 1
    streamingMipmapsActive: 0
    streamingMipmapsAddAllCameras: 1
    streamingMipmapsMemoryBudget: 512
    streamingMipmapsRenderersPerFrame: 512
    streamingMipmapsMaxLevelReduction: 2
    streamingMipmapsMaxFileIORequests: 1024
    particleRaycastBudget: 2048
    asyncUploadTimeSlice: 2
    asyncUploadBufferSize: 16
    asyncUploadPersistentBuffer: 1
    resolutionScalingFixedDPIFactor: 1
    customRenderPipeline: {fileID: 11400000, guid: 7b7fd9122c28c4d15b667c7040e3b3fd, type: 2}
    terrainQualityOverrides: 0
    terrainPixelError: 1
    terrainDetailDensityScale: 1
    terrainBasemapDistance: 1000
    terrainDetailDistance: 80
    terrainTreeDistance: 5000
    terrainBillboardStart: 50
    terrainFadeLength: 5
    terrainMaxTrees: 50
    excludedTargetPlatforms: []
  m_TextureMipmapLimitGroupNames: []
  m_PerPlatformDefaultQuality:
    Standalone: 0
    WebGL: 0
    iPhone: 0
