{
    "name": "DI",
    "rootNamespace": "",
    "references": [
        "GUID:9c2089b3a9a5405fb353c0997fdd6bd5",
        "GUID:b0214a6008ed146ff8f122a6a9c2f6cc",
        "GUID:f4b6a97339a074e83b014693cc9ada80",
        "GUID:73f3eeacb330e4edd8c7f0f86fade8a4",
        "GUID:1491147abca9d7d4bb7105af628b223e"
    ],
    "includePlatforms": [],
    "excludePlatforms": [],
    "allowUnsafeCode": false,
    "overrideReferences": false,
    "precompiledReferences": [],
    "autoReferenced": true,
    "defineConstraints": [],
    "versionDefines": [],
    "noEngineReferences": false
}